%YAML 1.1
%TAG !u! tag:unity3d.com,2011:
--- !u!78 &1
TagManager:
  serializedVersion: 2
  tags:
  - Enemy
  - Platform
  - Item
  - Player Projectile
  layers:
  - Default
  - TransparentFX
  - Ignore Raycast
  - 
  - Water
  - UI
  - 
  - 
  - Ground
  - Enemy
  - Platform
  - Projectiles
  - Player
  - 
  - 
  - 
  - 
  - 
  - 
  - 
  - 
  - 
  - 
  - 
  - 
  - 
  - 
  - 
  - 
  - 
  - 
  - 
  m_SortingLayers:
  - name: Default
    uniqueID: 0
    locked: 0
  - name: Background
    uniqueID: 3382455477
    locked: 0
  - name: Midground
    uniqueID: 3531143687
    locked: 0
  - name: Foreground
    uniqueID: 602857463
    locked: 0
  - name: Particles
    uniqueID: 3544133647
    locked: 0
